filipvlasic2008@gmail.com filipvlasic2008 2021-11-04T21:42:17.746Z
filipvlasicweb1 filipvlasicweb1@mailinator.com 2021-11-04T21:42:44.278Z
filipvlasicweb1 filipvlasicweb1@mailinator.com 2021-11-04T21:42:44.278Z
filipvlasicweb2 filipvlasicweb2@mailinator.com 2021-11-04T21:43:26.528Z
filipvlasic2008 filipvlasic2008@gmail.com 2021-11-04T21:59:58.114Z
filipvlasic2008 filipvlasic2008@gmail.com 2021-11-04T21:59:58.114Z
filipvlasic2008 filipvlasic2008@gmail.com 2021-11-04T21:59:58.114Z
filipvlasic2008 filipvlasic2008@gmail.com 2021-11-04T22:14:10.201Z
filipvlasicweb1 filipvlasicweb1@mailinator.com 2021-11-04T22:14:34.045Z
filipvlasicweb4 filipvlasicweb4@mailinator.com 2021-11-04T22:14:54.171Z
filipvlasic2008 filipvlasic2008@gmail.com 2021-11-05T20:56:49.424Z
